Module 7
…
               names_to = "station", values_to = "swe") %>%
  filter(swe > 0) %>%
  mutate(water_year = cut(Date, breaks =  c(as.Date(c("2020-10-01", "2021-10-01", "2022-10-01")), Inf), 
                      labels = paste0("WY_", c(2021, 2022, 2023)))) %>%
  mutate(station = gsub("\\.", " ", sub("\\.\\..*$", "", station))) %>% 
  # select only dates in april for WY 2022
  mutate(month = (format(Date, "%m"))) %>% 
  filter(month=="04") %>% 
  filter(water_year == "WY_2022") %>% 
  group_by(station) %>%
  summarise(swe_max = max(swe, na.rm=T),
            .groups = "drop") %>% 
  left_join(df_elev, by=c("station" = "names")) 

## # A tibble: 133 × 3
##    station          swe_max elevation_ft
##    <chr>              <dbl>        <int>
##  1 Agua Canyon          3.6         8900
##  2 Bear River RS        7.3         8777
##  3 Beaver Dams          6.6         7990
##  4 Beaver Divide        9.5         8280
##  5 Ben Lomond Peak     16.4         7689
##  6 Ben Lomond Trail     6.3         5972
##  7 Bevans Cabin         1           6520
##  8 Big Flat            19.9        10349
##  9 Black Flat U M       6.3         9414
## 10 Blacks Fork Jct      7.6         8869
## # ℹ 123 more rows
…
